tb/ALU_LIM_SIN_RIN.vcd
$date
	Fri Jul 17 17:18:42 2026
$end
$version
	Icarus Verilog
$end
$timescale
	1s
$end
$scope module tbALU_LIM_SIN_RIN $end
$var reg 1 ! clk $end
$upscope $end
$scope module tbALU_LIM_SIN_RIN $end
$var reg 1 " rst $end
$upscope $end
$scope module tbALU_LIM_SIN_RIN $end
$scope module UUT $end
$scope module PC $end
$var reg 8 # PC [7:0] $end
$upscope $end
$upscope $end
$upscope $end
$scope module tbALU_LIM_SIN_RIN $end
$scope module UUT $end
$scope module READOM $end
$var wire 16 $ instruction [15:0] $end
$upscope $end
$upscope $end
$upscope $end
$scope module tbALU_LIM_SIN_RIN $end
$scope module UUT $end
$scope module REG $end
$var reg 8 % \registers[0] [7:0] $end
$upscope $end
$upscope $end
$upscope $end
$scope module tbALU_LIM_SIN_RIN $end
$scope module UUT $end
$scope module REG $end
$var reg 8 & \registers[1] [7:0] $end
$upscope $end
$upscope $end
$upscope $end
$scope module tbALU_LIM_SIN_RIN $end
$scope module UUT $end
$scope module REG $end
$var reg 8 ' \registers[2] [7:0] $end
$upscope $end
$upscope $end
$upscope $end
$scope module tbALU_LIM_SIN_RIN $end
$scope module UUT $end
$scope module REG $end
$var reg 8 ( \registers[3] [7:0] $end
$upscope $end
$upscope $end
$upscope $end
$scope module tbALU_LIM_SIN_RIN $end
$scope module UUT $end
$scope module REG $end
$var reg 8 ) \registers[6] [7:0] $end
$upscope $end
$upscope $end
$upscope $end
$scope module tbALU_LIM_SIN_RIN $end
$scope module UUT $end
$scope module RAM $end
$var reg 8 * \RAM[8] [7:0] $end
$upscope $end
$upscope $end
$upscope $end
$enddefinitions $end
$comment Show the parameter values. $end
$dumpall
$end
#0
$dumpvars
b0 *
b0 )
b0 (
b0 '
b0 &
b0 %
b1000000001111 $
b0 #
1"
0!
$end
#5
b0 *
b0 )
b0 (
b0 '
b0 &
b0 %
1!
#10
0!
0"
#15
b1001000000001 $
b1 #
b1111 %
1!
#20
0!
#25
b11000001 $
b1 &
b10 #
1!
#30
0!
#35
b1110000001000 $
b11 #
b10000 (
1!
#40
0!
#45
b11011110000000 $
b1000 )
b100 #
1!
#50
0!
#55
b100010110000000 $
b101 #
b10000 *
1!
#60
0!
#65
bx $
b10000 '
b110 #
1!
#70
0!
#75
b111 #
1!
#80
0!
#85
b1000 #
1!
